%YAML 1.1
%TAG !u! tag:unity3d.com,2011:
--- !u!47 &1
QualitySettings:
  m_ObjectHideFlags: 0
  serializedVersion: 5
  m_CurrentQuality: 4
  m_QualitySettings:
  - serializedVersion: 2
    name: Fastest
    pixelLightCount: 0
    shadows: 0
    shadowResolution: 0
    shadowProjection: 1
    shadowCascades: 1
    shadowDistance: 15
    blendWeights: 1
    textureQuality: 1
    anisotropicTextures: 0
    antiAliasing: 0
    softParticles: 0
    softVegetation: 0
    vSyncCount: 0
    lodBias: .300000012
    maximumLODLevel: 0
    excludedTargetPlatforms: []
  - serializedVersion: 2
    name: Fast
    pixelLightCount: 0
    shadows: 0
    shadowResolution: 0
    shadowProjection: 1
    shadowCascades: 1
    shadowDistance: 20
    blendWeights: 2
    textureQuality: 0
    anisotropicTextures: 0
    antiAliasing: 0
    softParticles: 0
    softVegetation: 0
    vSyncCount: 0
    lodBias: .400000006
    maximumLODLevel: 0
    excludedTargetPlatforms: []
  - serializedVersion: 2
    name: Simple
    pixelLightCount: 1
    shadows: 1
    shadowResolution: 0
    shadowProjection: 1
    shadowCascades: 1
    shadowDistance: 20
    blendWeights: 2
    textureQuality: 0
    anisotropicTextures: 1
    antiAliasing: 0
    softParticles: 0
    softVegetation: 0
    vSyncCount: 0
    lodBias: .699999988
    maximumLODLevel: 0
    excludedTargetPlatforms: []
  - serializedVersion: 2
    name: Good
    pixelLightCount: 2
    shadows: 2
    shadowResolution: 3
    shadowProjection: 1
    shadowCascades: 2
    shadowDistance: 200
    blendWeights: 2
    textureQuality: 0
    anisotropicTextures: 1
    antiAliasing: 8
    softParticles: 0
    softVegetation: 1
    vSyncCount: 1
    lodBias: 1
    maximumLODLevel: 0
    excludedTargetPlatforms: []
  - serializedVersion: 2
    name: Beautiful
    pixelLightCount: 3
    shadows: 2
    shadowResolution: 2
    shadowProjection: 1
    shadowCascades: 2
    shadowDistance: 70
    blendWeights: 4
    textureQuality: 0
    anisotropicTextures: 2
    antiAliasing: 8
    softParticles: 1
    softVegetation: 1
    vSyncCount: 1
    lodBias: 1.5
    maximumLODLevel: 0
    excludedTargetPlatforms: []
  - serializedVersion: 2
    name: Fantastic
    pixelLightCount: 4
    shadows: 2
    shadowResolution: 2
    shadowProjection: 1
    shadowCascades: 4
    shadowDistance: 150
    blendWeights: 4
    textureQuality: 0
    anisotropicTextures: 2
    antiAliasing: 2
    softParticles: 1
    softVegetation: 1
    vSyncCount: 1
    lodBias: 2
    maximumLODLevel: 0
    excludedTargetPlatforms: []
  m_PerPlatformDefaultQuality:
    Android: 2
    FlashPlayer: 3
    GLES Emulation: 3
    PS3: 3
    Standalone: 3
    Web: 4
    Wii: 3
    XBOX360: 3
    iPhone: 2
